{
  "project_info": {
    "project_number": "1014567979361",
    "firebase_url": "https://redfoxunit-481bf.firebaseio.com",
    "project_id": "redfoxunit-481bf",
    "storage_bucket": "redfoxunit-481bf.appspot.com"
  },
  "client": [
    {
      "client_info": {
        "mobilesdk_app_id": "1:1014567979361:android:3d7f2ffd050ae88a",
        "android_client_info": {
          "package_name": "com.example.onur.redfoxunit"
        }
      },
      "oauth_client": [
        {
          "client_id": "1014567979361-6ujs5uermockn7atdttdigvr3b1m5l73.apps.googleusercontent.com",
          "client_type": 3
        }
      ],
      "api_key": [
        {
          "current_key": "AIzaSyD1TWSR6ymnUdc6Kh3k2_tLjj5uT1W6Px4"
        }
      ],
      "services": {
        "analytics_service": {
          "status": 1
        },
        "appinvite_service": {
          "status": 1,
          "other_platform_oauth_client": []
        },
        "ads_service": {
          "status": 2
        }
      }
    }
  ],
  "configuration_version": "1"
}